<svg xmlns="http://www.w3.org/2000/svg" xmlns:xlink="http://www.w3.org/1999/xlink" version="1.1" x="0px" y="0px" width="100px" height="100px" viewBox="0 0 100 100" enable-background="new 0 0 100 100" xml:space="preserve" fill="#ff0000" stroke="black">
<g id="Your_Icon" transform="translate(0, 100) scale(1, -1)">
	<path d="M85.814,61.176L52.109,33.077c-0.611-0.51-1.361-0.765-2.109-0.765c-0.75,0-1.5,0.255-2.111,0.765L14.186,61.176   c-1.398,1.164-1.586,3.242-0.42,4.638c0.631,0.758,1.527,1.147,2.439,1.172L16.189,67h67.672l-0.018-0.017   c0.895-0.038,1.773-0.429,2.393-1.17C87.4,64.418,87.213,62.34,85.814,61.176z"/>
</g>
</svg>